<?xml version="1.0" encoding="UTF-8" standalone="no"?>
<svg
   xmlns:dc="http://purl.org/dc/elements/1.1/"
   xmlns:cc="http://creativecommons.org/ns#"
   xmlns:rdf="http://www.w3.org/1999/02/22-rdf-syntax-ns#"
   xmlns:svg="http://www.w3.org/2000/svg"
   xmlns="http://www.w3.org/2000/svg"
   xmlns:sodipodi="http://sodipodi.sourceforge.net/DTD/sodipodi-0.dtd"
   xmlns:inkscape="http://www.inkscape.org/namespaces/inkscape"
   width="16"
   height="16"
   version="1.1"
   id="svg6"
   sodipodi:docname="farm.svg"
   inkscape:version="1.0.2 (e86c870879, 2021-01-15)">
  <metadata
     id="metadata12">
    <rdf:RDF>
      <cc:Work
         rdf:about="">
        <dc:format>image/svg+xml</dc:format>
        <dc:type
           rdf:resource="http://purl.org/dc/dcmitype/StillImage" />
      </cc:Work>
    </rdf:RDF>
  </metadata>
  <defs
     id="defs10" />
  <sodipodi:namedview
     pagecolor="#ffffff"
     bordercolor="#666666"
     borderopacity="1"
     objecttolerance="10"
     gridtolerance="10"
     guidetolerance="10"
     inkscape:pageopacity="0"
     inkscape:pageshadow="2"
     inkscape:window-width="1920"
     inkscape:window-height="1056"
     id="namedview8"
     showgrid="false"
     inkscape:zoom="35.25"
     inkscape:cx="3.6737589"
     inkscape:cy="8"
     inkscape:window-x="1366"
     inkscape:window-y="0"
     inkscape:window-maximized="1"
     inkscape:current-layer="svg6" />
  <rect
     style="stroke-width:0.0533335"
     width="16"
     height="16"
     x="0"
     y="0"
     id="rect2" />
  <rect
     style="fill:#ffcc00;stroke:#ffffff;stroke-width:0;stroke-linecap:round;paint-order:stroke markers fill"
     id="rect837"
     width="0.60199887"
     height="10.024505"
     x="1.4919103"
     y="4.4727473" />
  <rect
     style="fill:#ffcc00;stroke:#ffffff;stroke-width:0;stroke-linecap:round;paint-order:stroke markers fill"
     id="rect837-3"
     width="0.60199887"
     height="12.263444"
     x="2.5867581"
     y="1.7946912" />
  <rect
     style="fill:#ffcc00;stroke:#ffffff;stroke-width:0;stroke-linecap:round;paint-order:stroke markers fill"
     id="rect837-6"
     width="0.60199887"
     height="10.024505"
     x="3.6714818"
     y="4.5367479" />
  <rect
     style="fill:#ffcc00;stroke:#ffffff;stroke-width:0;stroke-linecap:round;paint-order:stroke markers fill"
     id="rect837-3-7"
     width="0.60199887"
     height="12.263444"
     x="4.7663298"
     y="1.8729861" />
  <rect
     style="fill:#ffcc00;stroke:#ffffff;stroke-width:0;stroke-linecap:round;paint-order:stroke markers fill"
     id="rect837-5"
     width="0.60199887"
     height="10.024505"
     x="5.8233061"
     y="4.6005836" />
  <rect
     style="fill:#ffcc00;stroke:#ffffff;stroke-width:0;stroke-linecap:round;paint-order:stroke markers fill"
     id="rect837-3-3"
     width="0.60199887"
     height="12.263444"
     x="6.9181542"
     y="1.9510795" />
  <rect
     style="fill:#ffcc00;stroke:#ffffff;stroke-width:0;stroke-linecap:round;paint-order:stroke markers fill"
     id="rect837-56"
     width="0.60199887"
     height="10.024505"
     x="7.9617634"
     y="4.6480942" />
  <rect
     style="fill:#ffcc00;stroke:#ffffff;stroke-width:0;stroke-linecap:round;paint-order:stroke markers fill"
     id="rect837-3-2"
     width="0.60199887"
     height="12.263444"
     x="9.0566111"
     y="2.0092013" />
  <rect
     style="fill:#ffcc00;stroke:#ffffff;stroke-width:0;stroke-linecap:round;paint-order:stroke markers fill"
     id="rect837-9"
     width="0.60199887"
     height="10.024505"
     x="10.029582"
     y="4.6589093" />
  <rect
     style="fill:#ffcc00;stroke:#ffffff;stroke-width:0;stroke-linecap:round;paint-order:stroke markers fill"
     id="rect837-3-1"
     width="0.60199887"
     height="12.263444"
     x="11.124431"
     y="2.0224316" />
  <rect
     style="fill:#ffcc00;stroke:#ffffff;stroke-width:0;stroke-linecap:round;paint-order:stroke markers fill"
     id="rect837-2"
     width="0.60199887"
     height="10.024505"
     x="12.124939"
     y="4.6793566" />
  <rect
     style="fill:#ffcc00;stroke:#ffffff;stroke-width:0;stroke-linecap:round;paint-order:stroke markers fill"
     id="rect837-3-70"
     width="0.60199887"
     height="12.263444"
     x="13.219787"
     y="2.0474458" />
  <rect
     style="fill:#ffcc00;stroke:#ffffff;stroke-width:0;stroke-linecap:round;paint-order:stroke markers fill"
     id="rect837-93"
     width="0.60199887"
     height="10.024505"
     x="14.225864"
     y="4.7683949" />
</svg>
