<?xml version="1.0" encoding="UTF-8" standalone="no"?>
<svg

   xmlns="http://www.w3.org/2000/svg"
   xmlns:sodipodi="http://sodipodi.sourceforge.net/DTD/sodipodi-0.dtd"
   xmlns:inkscape="http://www.inkscape.org/namespaces/inkscape"
   width="16"
   height="16">

  <rect
     style="stroke-width:0.0533335"
     width="16"
     height="16"
     x="0"
     y="0"
     id="rect2" />
  <path
     style="stroke:#fe0000;stroke-width:1.28"
     d="m 3.2000001,4.8 9.6000009,6.4"
     id="path4" />
  <path
     style="stroke:#fe0000;stroke-width:1.28"
     d="M 8,1.6 V 14.4"
     id="path6" />
  <path
     style="stroke:#fe0000;stroke-width:1.28"
     d="M 12.800001,4.8 3.2000001,11.2"
     id="path8" />
</svg>
