<?xml version="1.0" encoding="UTF-8" standalone="no"?>
<svg
   xmlns:dc="http://purl.org/dc/elements/1.1/"
   xmlns:cc="http://creativecommons.org/ns#"
   xmlns:rdf="http://www.w3.org/1999/02/22-rdf-syntax-ns#"
   xmlns:svg="http://www.w3.org/2000/svg"
   xmlns="http://www.w3.org/2000/svg"
   xmlns:sodipodi="http://sodipodi.sourceforge.net/DTD/sodipodi-0.dtd"
   xmlns:inkscape="http://www.inkscape.org/namespaces/inkscape"
   width="16"
   height="16"
   version="1.1"
   id="svg6"
   sodipodi:docname="town.svg"
   inkscape:version="1.0.2 (e86c870879, 2021-01-15)">
  <metadata
     id="metadata12">
    <rdf:RDF>
      <cc:Work
         rdf:about="">
        <dc:format>image/svg+xml</dc:format>
        <dc:type
           rdf:resource="http://purl.org/dc/dcmitype/StillImage" />
      </cc:Work>
    </rdf:RDF>
  </metadata>
  <defs
     id="defs10" />
  <sodipodi:namedview
     pagecolor="#ffffff"
     bordercolor="#666666"
     borderopacity="1"
     objecttolerance="10"
     gridtolerance="10"
     guidetolerance="10"
     inkscape:pageopacity="0"
     inkscape:pageshadow="2"
     inkscape:window-width="1920"
     inkscape:window-height="1056"
     id="namedview8"
     showgrid="false"
     inkscape:zoom="35.25"
     inkscape:cx="3.6737589"
     inkscape:cy="8"
     inkscape:window-x="1366"
     inkscape:window-y="0"
     inkscape:window-maximized="1"
     inkscape:current-layer="svg6" />
  <rect
     style="stroke-width:0.0533335"
     width="16"
     height="16"
     x="0"
     y="0"
     id="rect2" />
  <rect
     style="fill:#ac9393;stroke:#ffffff;stroke-width:0;stroke-linecap:round;paint-order:stroke markers fill"
     id="rect837"
     width="3.7065394"
     height="10.82258"
     x="3.7783687"
     y="4.0391655" />
  <path
     sodipodi:type="star"
     style="fill:#ac9393;stroke:#ffffff;stroke-width:0;stroke-linecap:round;paint-order:stroke markers fill"
     id="path841"
     sodipodi:sides="3"
     sodipodi:cx="5.5820937"
     sodipodi:cy="2.6437287"
     sodipodi:r1="2.9401093"
     sodipodi:r2="1.4700546"
     sodipodi:arg1="0.52720059"
     sodipodi:arg2="1.5743981"
     inkscape:flatsided="true"
     inkscape:rounded="0"
     inkscape:randomized="0"
     d="M 8.1229917,4.1229448 3.0306061,4.1046029 5.5926834,-0.29636145 Z"
     inkscape:transform-center-x="0.0038168673"
     inkscape:transform-center-y="-0.59685367"
     transform="matrix(0.72083584,0,0,0.81711858,1.6295646,0.67023071)" />
  <rect
     style="fill:#ac9393;stroke:#ffffff;stroke-width:0;stroke-linecap:round;paint-order:stroke markers fill"
     id="rect845"
     width="3.4321601"
     height="3.6114805"
     x="8.4273672"
     y="11.26055" />
  <rect
     style="fill:#ac9393;stroke:#ffffff;stroke-width:0;stroke-linecap:round;paint-order:stroke markers fill"
     id="rect847"
     width="2.2110484"
     height="2.2055664"
     x="0.81672484"
     y="12.558003" />
  <rect
     style="fill:#ac9393;stroke:#ffffff;stroke-width:0;stroke-linecap:round;paint-order:stroke markers fill"
     id="rect849"
     width="2.4482698"
     height="2.3390439"
     x="12.975703"
     y="12.483482" />
  <ellipse
     style="fill:#ac9393;stroke:#ffffff;stroke-width:0;stroke-linecap:round;paint-order:stroke markers fill"
     id="path851"
     cx="10.134145"
     cy="11.48214"
     rx="1.7322521"
     ry="1.8080933" />
  <path
     sodipodi:type="star"
     style="fill:#ac9393;stroke:#ffffff;stroke-width:0;stroke-linecap:round;paint-order:stroke markers fill"
     id="path841-3"
     sodipodi:sides="3"
     sodipodi:cx="5.5820937"
     sodipodi:cy="2.6437287"
     sodipodi:r1="2.9401093"
     sodipodi:r2="1.4700546"
     sodipodi:arg1="0.52720059"
     sodipodi:arg2="1.5743981"
     inkscape:flatsided="true"
     inkscape:rounded="0"
     inkscape:randomized="0"
     inkscape:transform-center-x="0.0023480037"
     inkscape:transform-center-y="-0.18564525"
     transform="matrix(0.44343299,0,0,0.25415626,-0.52714604,11.525119)"
     d="M 8.1229917,4.1229448 3.0306061,4.1046029 5.5926834,-0.29636145 Z" />
  <path
     sodipodi:type="star"
     style="fill:#ac9393;stroke:#ffffff;stroke-width:0;stroke-linecap:round;paint-order:stroke markers fill"
     id="path841-6"
     sodipodi:sides="3"
     sodipodi:cx="5.5820937"
     sodipodi:cy="2.6437287"
     sodipodi:r1="2.9401093"
     sodipodi:r2="1.4700546"
     sodipodi:arg1="0.52720059"
     sodipodi:arg2="1.5743981"
     inkscape:flatsided="true"
     inkscape:rounded="0"
     inkscape:randomized="0"
     inkscape:transform-center-x="0.0025163721"
     inkscape:transform-center-y="-0.33532045"
     transform="matrix(0.47513476,0,0,0.45906793,11.564457,10.590771)"
     d="M 8.1229917,4.1229448 3.0306061,4.1046029 5.5926834,-0.29636145 Z" />
</svg>
